{
    "target_overrides": {
        "*": {
            "sd.SPI_MOSI" : "D11",
            "sd.SPI_MISO" : "D12",
            "sd.SPI_CLK"  : "D13",
            "sd.SPI_CS"   : "D10",
            "target.components_add": ["SD"],
            "target.printf_lib": "minimal-printf",
            "platform.minimal-printf-enable-floating-point": true,
            "platform.minimal-printf-set-floating-point-max-decimals": 6,
            "platform.minimal-printf-enable-64-bit": false,
            "platform.stdio-convert-newlines": true,
            "nsapi.default-wifi-security": "WPA_WPA2",
            "nsapi.default-wifi-ssid": "\"WIFI-MarcoPolo-R\"",
            "nsapi.default-wifi-password": "\"Marconia\"",
            "platform.stdio-baud-rate": 9600,
            "target.network-default-interface-type" : "WIFI",           
            "esp8266.provide-default" : true            
        }        
    }
}